{
	"info": {
		"_postman_id": "1dca1231-7bf7-4972-a312-ec828ce4463f",
		"name": "tokenizer",
		"schema": "https://schema.getpostman.com/json/collection/v2.1.0/collection.json"
	},
	"item": [
		{
			"name": "HOME",
			"request": {
				"method": "GET",
				"header": [],
				"url": {
					"raw": "localhost:3000",
					"host": [
						"localhost"
					],
					"port": "3000"
				}
			},
			"response": []
		},
		{
			"name": "GET_TOKEN",
			"request": {
				"auth": {
					"type": "bearer",
					"bearer": [
						{
							"key": "token",
							"value": "pk_test_UTCQSGcXW8bCyU59",
							"type": "string"
						}
					]
				},
				"method": "GET",
				"header": [],
				"url": {
					"raw": "localhost:3000/tokens/vHyv0HQ31hw5F39q",
					"host": [
						"localhost"
					],
					"port": "3000",
					"path": [
						"tokens",
						"vHyv0HQ31hw5F39q"
					]
				}
			},
			"response": []
		},
		{
			"name": "ADD_TOKEN",
			"protocolProfileBehavior": {
				"followOriginalHttpMethod": true
			},
			"request": {
				"auth": {
					"type": "bearer",
					"bearer": [
						{
							"key": "token",
							"value": "pk_test_UTCQSGcXW8bCyU59",
							"type": "string"
						}
					]
				},
				"method": "POST",
				"header": [],
				"body": {
					"mode": "raw",
					"raw": "{\n    \"card_number\": 4111111111111111,\n    \"cvv\": 373,\n    \"expiration_month\": \"12\",\n    \"expiration_year\": \"2025\",\n    \"email\": \"isra@gmail.com\"\n}",
					"options": {
						"raw": {
							"language": "json"
						}
					}
				},
				"url": {
					"raw": "localhost:3000/tokens",
					"host": [
						"localhost"
					],
					"port": "3000",
					"path": [
						"tokens"
					]
				}
			},
			"response": []
		}
	]
}